{
  "appId": "com.cinemapafrontend.app",
  "appName": "cinemapa",
  "bundledWebRuntime": false,
  "npmClient": "npm",
  "webDir": "www",
  "plugins": {
    "SplashScreen": {
      "launchShowDuration": 0
    }
  },
  "cordova": {},
  "linuxAndroidStudioPath": "/usr/bin/android-studio"
}
